[
	{
		"name": "Common",
		"color": "#9c9c9c"
	},
	{
		"name": "Uncommon",
		"color": "#e2e2e2"
	},
	{
		"name": "Rare",
		"color": "#82ce6f"
	},
	{
		"name": "Pristine",
		"color": "#67a4ff"
	},
	{
		"name": "Exotic",
		"color": "#cf8fff"
	},
	{
		"name": "Legendary",
		"color": "#d89642"
	},
	{
		"name": "Ancient",
		"color": "#f74d4d"
	},
	{
		"name": "Set",
		"color": "#fd99b4"
	}
]