{
	"houses": [{
		"timeToExitCity": 10,
		"floors": [{
			"timeToHouse": 1,
			"apartaments": [{
				"timeToExitFloor": 2,
				"people": [{
					"person": {
						"name": "Sugar Kuk",
						"timeToExitAprt": 1
					}
				}]
			}]
		}]
	}]
}