{
    "hwords": [
        "High", "Holy", "Hasty", "Henious", "hentai", "hazardous", "hypocritical", "hypothermical", "heterosexual", "hermaphrodite", "herpes", "humping", "hipster", "hard", "heroic", "heretical", "harem", "harambe", "habitable", "herogryphical", "harmonising", "harmonious", "hunting", "hardly", "harlet", "heavy", "haggling", "harvesting", "hectical", "hexagonal", "hallelujah", "hulking", "handy", "handsome", "hunky", "hilarious", "homocidal", "humid", "human", "Humane", "horsey", "hemospherical", "hiccup", "heterochromial", "homosexual", "humongous", "Haram", "Hacking", "happy", "hoaxing", "Hoarding", "harbouring", "hedgehog", "hedghogging", "hedging", "hyper", "homeless", "helmless", "headless", "heralding", "heraldic", "hipstering", "hobbyist", "homebred", "homegirl", "homeboy", "homebrew", "homely", "horrible", "heavenly", "hefty", "hydrated", "hydriting", "hardy", "hammy", "humpy", "hundred", "hungering", "hungry", "hungarian", "hound", "homosapien", "hawaiian", "hollandeous", "hollow", "hallow", "hello", "heroine", "herpes", "halting", "helmetless", "heartened", "hate", "hateful", "hot", "hoping", "hopeless", "horrendous", "horryfying", "horrific"
    ],
    "dwords": [
        "dispensible", "dictator", "dictatorial", "deliberate", "delivery", "democratical", "democratic", "delightful", "delinquent", "digesting", "digestive", "decisesive", "dormant", "definition", "disastrous", "disposable", "draining", "devastating", "dumb", "delicious", "docking", "delayed", "dragonous", "doubtful", "dazing", "Defining", "defiling", "decoding", "delish", "decent", "derenged", "destructive", "duplicate", "double", "democratical", "disturbing", "demonitized", "demonised", "demilishing", "demolished", "demoralised", "demoralising", "distant", "directed", "defused", "defusing", "defined", "documented", "documenting", "deceptive", "dusty", "dusting", "describing", "describe", "delirious", "drunk", "drugged", "dragged", "Dragging", "drugging", "Drinking", "damaged", "damaging", "delivering", "draining", "drained", "declined", "declining", "decking", "doctor", "doctoring", "detrimental", "dangerous", "draconic", "delighted", "dry", "drying", "dressed", "dressing", "decompressing", "depressing", "developed", "developing", "detrimental", "distorted", "degenerate", "deformed", "degenerating", "distributing", "distributive", "defining", "doctorial", "decorative", "determined", "dense", "disgusing", "desert", "deserting", "dessert", "doldging", "denying", "defensive", "deserving"
    ]
}