{
    "A": [
        "Apple",
        "Aloe",
        "Amber",
        "Amethyst",
        "Andromeda",
        "Autumn"
    ],
    "B": [
        "Blinky",
        "Bow",
        "Breezy"
    ],
    "C": [
        "Cadence",
        "Celestia",
        "Celestial",
        "Cherry",
        "Cherished",
        "Chicken",
        "Chrysalis",
        "Cloud",
        "Cream",
        "Creamy"
    ],
    "D": [
        "Dawn",
        "Desert",
        "Deserted",
        "Destiny",
        "Diamond",
        "Digital",
        "Digging",
        "Doodle",
        "Dream",
        "Dreamy",
        "Dusk",
        "Dust",
        "Dusty"
    ],
    "E": [
        "Ebony",
        "Ember",
        "Emerald"
    ],
    "F": [
        "Fall",
        "Fleur",
        "Flitter",
        "Flutter"
    ],
    "G": [
        "Galaxy",
        "Galaxia"
    ],
    "H": [
        "Hazel"
    ],
    "I": [
        "Inky",
        "Ivory"
    ],
    "J": [
        "Jade"
    ],
    "K": [
        "King"
    ],
    "L": [
        "Lightning",
        "Lotus",
        "Lunar",
        "Luxia"
    ],
    "M": [
        "Marble",
        "Maud",
        "Maximus",
        "Milky",
        "Moon",
        "Mulberry"
    ],
    "N": [
        "Noxem",
        "Nyx"
    ],
    "O": [
        "Octave",
        "Octavia"
    ],
    "P": [
        "Peanut",
        "Petal",
        "Pinkie",
        "Princess"
    ],
    "Q": [
        "Queen"
    ],
    "R": [
        "Rain",
        "Rainbow",
        "Rare",
        "Ruby"
    ],
    "S": [
        "Salt",
        "Sapphire",
        "Serene",
        "Scratch",
        "Scratching",
        "Silver",
        "Shield",
        "Sketch",
        "Solar",
        "Sparkling",
        "Spring",
        "Starless",
        "Starlight",
        "String",
        "Sugar",
        "Summer",
        "Sunny",
        "Sunset",
        "Sunrise",
        "Sunshine",
        "Sweetie",
        "Sword"
    ],
    "T": [
        "Thunder",
        "Tradewind",
        "Twilight"
    ],
    "U": [
        "Ulysses"
    ],
    "V": [
        "Vinyl",
        "Violin"
    ],
    "W": [
        "Wind",
        "Windy",
        "Winter"
    ],
    "X": [
        "Xenia"
    ],
    "Y": [
        "Yellow"
    ],
    "Z": [
        "Zesty"
    ]
}