{
    "Equestria": [
        "Canterlot",
        "Ponyville",
        "Dodge City",
        "Dodge Junction",
        "Manehattan",
        "Fillydelphia"
    ],
    "Sucrosia": [
        "Sucrantium"
    ],
    "Fyria": [
        "Fyrton"
    ]
}