{
    "Fyrian": [
        "Trihorn",
        "Trihornwing",
        "Fivehornfourwing"
    ],
    "Equestrian": [
        "Unicorn",
        "Earth pony",
        "Pegasus",
        "Alicorn",
        "Changeling"
    ]
}