{
    "A": [
        "Amethystmane",
        "Array"
    ],
    "B": [
        "Bangs",
		"Blossom",
		"Blossoming",
        "Breeze",
        "Buns"
    ],
    "C": [
        "Care",
        "Chaser"
    ],
    "D": [
        "Dazzle",
        "Digger",
        "Dodger"
	],
    "G": [
        "Ghost",
        "Glimmer",
        "Glitter",
        "Glow",
        "Grace"
    ],
    "L": [
        "Lace"
    ],
    "M": [
        "Milk"
    ],
    "N": [
        "Nut"
    ],
    "P": [
        "Pathfinder",
        "Peace",
        "Peachbottom"
    ],
    "R": [
        "Roller"
    ],
    "S": [
        "Sparkle",
        "Steps",
        "Stroller"
    ],
    "T": [
        "Trotter"
    ],
    "Z": [
        "Zest"
    ]
}