[
    {
        "id": 1,
        "name": "Baker"
    },
    {
        "id": 2,
        "name": "Queen"
    },
    {
        "id": 3,
        "name": "Princess"
    },
    {
        "id": 4,
        "name": "Warrior"
    },
    {
        "id": 5,
        "name": "Construction worker"
    },
    {
        "id": 6,
        "name": "Administrator"
    },
    {
        "id": 7,
        "name": "Chef"
    },
    {
        "id": 8,
        "name": "Waiter"
    }
]