[
    "Jubilee",
    "Velvet",
    "Sparkle",
    "Glitter",
    "Dust",
    "Bomb",
    "Eclipse",
    "Blaze",
    "Polecat",
    "Dash",
    "Shimmer",
    "Glimmer",
    "Chaser",
    "Bloom",
    "Blossom",
    "Fritter",
    "Darkness",
    "Dusk",
    "Dawn",
    "Moon",
    "Gem",
    "Tiara",
    "Spoon",
    "Glow",
    "Rose",
    "Leaf",
    "Sunrise",
    "Sunshine",
    "Bloom",
    "Belle",
    "Pie",
    "Stone",
    "Crystal"
]