[
    {
        "id": 0,
        "name": "Warrior",
        "attributes": {
            "strength": 2,
            "dexterity": 2,
            "endurance": 2,
            "intelligence": 2,
            "wisdom": 2,
            "knowledge": 2
        },
        "stats": {
            "health": 10,
            "mana": 10
        }
    },
    {
        "id": 1,
        "name": "Warlock",
        "attributes": {
            "strength": 2,
            "dexterity": 2,
            "endurance": 2,
            "intelligence": 2,
            "wisdom": 2,
            "knowledge": 2
        },
        "stats": {
            "health": 10,
            "mana": 10
        }
    },
    {
        "id": 2,
        "name": "Ranger",
        "attributes": {
            "strength": 2,
            "dexterity": 2,
            "endurance": 2,
            "intelligence": 2,
            "wisdom": 2,
            "knowledge": 2
        },
        "stats": {
            "health": 10,
            "mana": 10
        }
    },
    {
        "id": 3,
        "name": "Wizard",
        "attributes": {
            "strength": 2,
            "dexterity": 2,
            "endurance": 2,
            "intelligence": 2,
            "wisdom": 2,
            "knowledge": 2
        },
        "stats": {
            "health": 10,
            "mana": 10
        }
    },
    {
        "id": 4,
        "name": "Sorcerer",
        "attributes": {
            "strength": 2,
            "dexterity": 2,
            "endurance": 2,
            "intelligence": 2,
            "wisdom": 2,
            "knowledge": 2
        },
        "stats": {
            "health": 10,
            "mana": 10
        }
    },
    {
        "id": 5,
        "name": "Priest",
        "attributes": {
            "strength": 2,
            "dexterity": 2,
            "endurance": 2,
            "intelligence": 2,
            "wisdom": 2,
            "knowledge": 2
        },
        "stats": {
            "health": 10,
            "mana": 10
        }
    }
]