[
    {
        "id": 1,
        "name": "Unicorn",
        "horns": 3,
        "homeland": "Equestria",
        "attributes": {
            "strength": 2,
            "dexterity": 2,
            "endurance": 2,
            "intelligence": 2,
            "wisdom": 2,
            "knowledge": 2
        },
        "stats": {
            "health": 10,
            "mana": 10
        }
    },
    {
        "id": 2,
        "name": "Pegasus",
        "wings": 2,
        "homeland": "Equestria",
        "attributes": {
            "strength": 2,
            "dexterity": 2,
            "endurance": 2,
            "intelligence": 2,
            "wisdom": 2,
            "knowledge": 2
        },
        "stats": {
            "health": 10,
            "mana": 10
        }
    },
    {
        "id": 3,
        "name": "Earth Pony",
        "homeland": "Equestria",
        "attributes": {
            "strength": 2,
            "dexterity": 2,
            "endurance": 2,
            "intelligence": 2,
            "wisdom": 2,
            "knowledge": 2
        },
        "stats": {
            "health": 10,
            "mana": 10
        }
    },
    {
        "id": 4,
        "name": "Alicorn",
        "horns": 1,
        "wings": 2,
        "homeland": "Equestria",
        "attributes": {
            "strength": 2,
            "dexterity": 2,
            "endurance": 2,
            "intelligence": 2,
            "wisdom": 2,
            "knowledge": 2
        },
        "stats": {
            "health": 10,
            "mana": 10
        }
    },
    {
        "id": 5,
        "name": "Changeling",
        "horns": 1,
        "wings": 2,
        "homeland": "Equestria",
        "attributes": {
            "strength": 2,
            "dexterity": 2,
            "endurance": 2,
            "intelligence": 2,
            "wisdom": 2,
            "knowledge": 2
        },
        "stats": {
            "health": 10,
            "mana": 10
        }
    },
    {
        "id": 6,
        "name": "Fyrian",
        "horns": 3,
        "homeland": "Fyria",
        "attributes": {
            "strength": 2,
            "dexterity": 2,
            "endurance": 2,
            "intelligence": 2,
            "wisdom": 2,
            "knowledge": 2
        },
        "stats": {
            "health": 10,
            "mana": 10
        }
    },
    {
        "id": 7,
        "name": "Fyrian Pegasus",
        "horns": 2,
        "wings": 2,
        "homeland": "Fyria",
        "attributes": {
            "strength": 2,
            "dexterity": 2,
            "endurance": 2,
            "intelligence": 2,
            "wisdom": 2,
            "knowledge": 2
        },
        "stats": {
            "health": 10,
            "mana": 10
        }
    },
    {
        "id": 8,
        "name": "Fyrian Alicorn",
        "horns": 3,
        "wings": 4,
        "homeland": "Fyria",
        "attributes": {
            "strength": 2,
            "dexterity": 2,
            "endurance": 2,
            "intelligence": 2,
            "wisdom": 2,
            "knowledge": 2
        },
        "stats": {
            "health": 10,
            "mana": 10
        }
    }
]